
<svg xmlns="http://www.w3.org/2000/svg" width="13.409" height="6.003" viewBox="0 0 16.409 9.003">
  


























<path id="Path_188" data-name="Path 188" d="M14.424,278.5l7.956,7.412,7.412-7.412" transform="translate(-13.913 -277.951)" fill="none" stroke="#467" stroke-width="2"></path>
</svg>